<?xml version="1.0" encoding="utf-8"?>
<svg xmlns="http://www.w3.org/2000/svg"
	xmlns:xlink="http://www.w3.org/1999/xlink"
	width="32px" height="34px" viewBox="0 0 32 34">
<style type="text/css"><![CDATA[
.style0 {
  font-size: 18px;
  font-family: "BlissPro";
  fill: rgb(42,49,56);
}
]]></style>
<text transform="translate(5.27,12.00)" class="style0"><tspan x="-5.51" fill="rgb(42,49,56)">A</tspan></text><path fillRule="evenodd" d="M 31.71 26.2C 31.71 26.2 25.29 26.2 25.29 26.2 25.13 26.2 25 26.07 25 25.9 25 25.9 25 25.3 25 25.3 25 25.13 25.13 25 25.29 25 25.29 25 31.71 25 31.71 25 31.87 25 32 25.13 32 25.3 32 25.3 32 25.9 32 25.9 32 26.07 31.87 26.2 31.71 26.2ZM 28.31 27.47C 28.42 27.38 28.58 27.38 28.69 27.47 28.69 27.47 31 29.55 31 29.55 31.12 29.66 31.13 29.85 31.03 29.97 31.03 29.97 30.64 30.42 30.64 30.42 30.53 30.55 30.35 30.56 30.23 30.45 30.23 30.45 29.08 29.42 29.08 29.42 29.08 29.42 29.08 33.7 29.08 33.7 29.08 33.87 28.95 34 28.79 34 28.79 34 28.21 34 28.21 34 28.05 34 27.92 33.87 27.92 33.7 27.92 33.7 27.92 29.42 27.92 29.42 27.92 29.42 26.77 30.45 26.77 30.45 26.65 30.56 26.47 30.55 26.36 30.42 26.36 30.42 25.97 29.98 25.97 29.98 25.87 29.85 25.88 29.66 26 29.55 26 29.55 28.31 27.47 28.31 27.47Z" fill="rgb(42,49,56)"/></svg>