<?xml version="1.0" encoding="utf-8"?>
<svg xmlns="http://www.w3.org/2000/svg"
	xmlns:xlink="http://www.w3.org/1999/xlink"
	width="33px" height="35px" viewBox="0 0 33 35">
<style type="text/css"><![CDATA[
.style0 {
  font-size: 18px;
  font-family: "BlissPro";
  fill: rgb(42,49,56);
}
]]></style>
<text transform="translate(3.27,12.00)" class="style0"><tspan x="-4.84" fill="rgb(42,49,56)">R</tspan></text><path fillRule="evenodd" d="M 33 30C 33 30 24 24.99 24 24.99 24 24.99 24 35 24 35 24 35 33 30 33 30Z" fill="rgb(42,49,56)"/></svg>