<?xml version="1.0" encoding="utf-8"?>
<svg xmlns="http://www.w3.org/2000/svg"
	xmlns:xlink="http://www.w3.org/1999/xlink"
	width="32px" height="31px" viewBox="0 0 32 31">
<style type="text/css"><![CDATA[
.style0 {
  font-size: 18px;
  font-family: "BlissPro";
  fill: rgb(255,165,0);
}
]]></style>
<text transform="translate(5.27,12.00)" class="style0"><tspan x="-4.98" fill="rgb(255,164,0)">Z</tspan></text><path fillRule="evenodd" d="M 26.5 24C 26.5 24 22.21 31 22.21 31 22.21 31 20.99 31 20.99 31 20.99 31 26.5 22 26.5 22 26.5 22 32 31 32 31 32 31 30.78 31 30.78 31 30.78 31 26.5 24 26.5 24Z" fill="rgb(255,165,0)"/></svg>